CA2020_project2_stage1/codes/CPU.vcd
$date
	Mon Jan 04 02:05:36 2021
$end
$version
	Icarus Verilog
$end
$timescale
	1s
$end
$scope module testbench $end
$var wire 256 ! mem_cpu_data [255:0] $end
$var wire 1 " mem_cpu_ack $end
$var wire 1 # cpu_mem_write $end
$var wire 1 $ cpu_mem_enable $end
$var wire 256 % cpu_mem_data [255:0] $end
$var wire 32 & cpu_mem_addr [31:0] $end
$var reg 1 ' Clk $end
$var reg 1 ( Reset $end
$var reg 1 ) Start $end
$var reg 27 * address [26:0] $end
$var reg 1 + flag $end
$var reg 4 , index [3:0] $end
$var reg 25 - tag [24:0] $end
$var integer 32 . counter [31:0] $end
$var integer 32 / i [31:0] $end
$var integer 32 0 j [31:0] $end
$var integer 32 1 outfile [31:0] $end
$var integer 32 2 outfile2 [31:0] $end
$scope module CPU $end
$var wire 1 ' clk_i $end
$var wire 1 ( rst_i $end
$var wire 1 ) start_i $end
$var wire 1 # mem_write_o $end
$var wire 1 $ mem_enable_o $end
$var wire 256 3 mem_data_o [255:0] $end
$var wire 256 4 mem_data_i [255:0] $end
$var wire 32 5 mem_addr_o [31:0] $end
$var wire 1 " mem_ack_i $end
$var wire 32 6 instr [31:0] $end
$var wire 1 7 Stall $end
$var wire 32 8 SignExtend_Result [31:0] $end
$var wire 32 9 ShiftLeft_Result [31:0] $end
$var wire 32 : RS2data [31:0] $end
$var wire 32 ; RS1data [31:0] $end
$var wire 32 < PC_o [31:0] $end
$var wire 32 = PC_Four [31:0] $end
$var wire 32 > PC_Branch [31:0] $end
$var wire 1 ? PCWrite $end
$var wire 1 @ NoOp $end
$var wire 32 A MUX_PC_Result [31:0] $end
$var wire 32 B MUX_MemtoReg_Result [31:0] $end
$var wire 32 C MUX_ALUSRC_Result [31:0] $end
$var wire 1 D MEMWB_RegWrite $end
$var wire 5 E MEMWB_RDAddr [4:0] $end
$var wire 1 F MEMWB_MemtoReg $end
$var wire 32 G MEMWB_MemReadData [31:0] $end
$var wire 32 H MEMWB_ALUResult [31:0] $end
$var wire 32 I IFID_pc [31:0] $end
$var wire 32 J IFID_instr [31:0] $end
$var wire 10 K IDEX_funct [9:0] $end
$var wire 32 L IDEX_SignExtend [31:0] $end
$var wire 1 M IDEX_RegWrite $end
$var wire 32 N IDEX_RS2Data [31:0] $end
$var wire 5 O IDEX_RS2Addr [4:0] $end
$var wire 32 P IDEX_RS1Data [31:0] $end
$var wire 5 Q IDEX_RS1Addr [4:0] $end
$var wire 5 R IDEX_RDAddr [4:0] $end
$var wire 1 S IDEX_MemtoReg $end
$var wire 1 T IDEX_MemWrite $end
$var wire 1 U IDEX_MemRead $end
$var wire 1 V IDEX_ALUSrc $end
$var wire 2 W IDEX_ALUOp [1:0] $end
$var wire 32 X Forward_MUX_B_Result [31:0] $end
$var wire 32 Y Forward_MUX_A_Result [31:0] $end
$var wire 2 Z Forward_B [1:0] $end
$var wire 2 [ Forward_A [1:0] $end
$var wire 1 \ Flush $end
$var wire 1 ] Equal_Result $end
$var wire 1 ^ EXMEM_RegWrite $end
$var wire 5 _ EXMEM_RDAddr [4:0] $end
$var wire 1 ` EXMEM_MemtoReg $end
$var wire 32 a EXMEM_MemWriteData [31:0] $end
$var wire 1 b EXMEM_MemWrite $end
$var wire 1 c EXMEM_MemRead $end
$var wire 32 d EXMEM_ALUResult [31:0] $end
$var wire 1 e Ctrl_RegWrite $end
$var wire 1 f Ctrl_MemtoReg $end
$var wire 1 g Ctrl_MemWrite $end
$var wire 1 h Ctrl_MemRead $end
$var wire 1 i Ctrl_Branch $end
$var wire 1 j Ctrl_ALUSrc $end
$var wire 2 k Ctrl_ALUOp [1:0] $end
$var wire 1 l CacheCtrl_Stall $end
$var wire 32 m CacheCtrl_MEMWB_Data [31:0] $end
$var wire 32 n ALU_Result [31:0] $end
$var wire 4 o ALUCtrl [3:0] $end
$scope module ALU $end
$var wire 32 p data2_i [31:0] $end
$var wire 32 q data1_i [31:0] $end
$var wire 4 r ALUCtrl_i [3:0] $end
$var reg 32 s data_o [31:0] $end
$upscope $end
$scope module ALU_Control $end
$var wire 10 t funct_i [9:0] $end
$var wire 2 u ALUOp_i [1:0] $end
$var reg 4 v ALUCtrl_o [3:0] $end
$upscope $end
$scope module Add_Branch $end
$var wire 32 w data_o [31:0] $end
$var wire 32 x data2_in [31:0] $end
$var wire 32 y data1_in [31:0] $end
$upscope $end
$scope module Add_PC $end
$var wire 32 z data2_in [31:0] $end
$var wire 32 { data_o [31:0] $end
$var wire 32 | data1_in [31:0] $end
$upscope $end
$scope module And $end
$var wire 1 \ data_o $end
$var wire 1 ] data2_i $end
$var wire 1 i data1_i $end
$upscope $end
$scope module Control $end
$var wire 7 } Op_i [6:0] $end
$var wire 1 @ NoOp_i $end
$var reg 2 ~ ALUOp_o [1:0] $end
$var reg 1 j ALUSrc_o $end
$var reg 1 i Branch_o $end
$var reg 1 h MemRead_o $end
$var reg 1 g MemWrite_o $end
$var reg 1 f MemtoReg_o $end
$var reg 1 e RegWrite_o $end
$upscope $end
$scope module EXMEM $end
$var wire 32 !" ALU_Result_i [31:0] $end
$var wire 1 ' clk_i $end
$var wire 1 ) start_i $end
$var wire 1 l stall_i $end
$var wire 1 M RegWrite_i $end
$var wire 5 "" RdAddr_i [4:0] $end
$var wire 1 S MemtoReg_i $end
$var wire 1 T MemWrite_i $end
$var wire 32 #" MemWrite_Data_i [31:0] $end
$var wire 1 U MemRead_i $end
$var reg 32 $" ALU_Result_o [31:0] $end
$var reg 1 c MemRead_o $end
$var reg 32 %" MemWrite_Data_o [31:0] $end
$var reg 1 b MemWrite_o $end
$var reg 1 ` MemtoReg_o $end
$var reg 5 &" RdAddr_o [4:0] $end
$var reg 1 ^ RegWrite_o $end
$upscope $end
$scope module Equal $end
$var wire 1 ] equal_o $end
$var wire 32 '" data2_i [31:0] $end
$var wire 32 (" data1_i [31:0] $end
$upscope $end
$scope module Forward_MUX_A $end
$var wire 32 )" MEM_ALU_Result_i [31:0] $end
$var wire 32 *" MUX_Result_o [31:0] $end
$var wire 32 +" WB_WriteData_i [31:0] $end
$var wire 2 ," Forward_i [1:0] $end
$var wire 32 -" EX_RS_Data_i [31:0] $end
$var reg 32 ." MUX_Result [31:0] $end
$upscope $end
$scope module Forward_MUX_B $end
$var wire 32 /" MEM_ALU_Result_i [31:0] $end
$var wire 32 0" MUX_Result_o [31:0] $end
$var wire 32 1" WB_WriteData_i [31:0] $end
$var wire 2 2" Forward_i [1:0] $end
$var wire 32 3" EX_RS_Data_i [31:0] $end
$var reg 32 4" MUX_Result [31:0] $end
$upscope $end
$scope module Forwarding_Unit $end
$var wire 2 5" Forward_A_o [1:0] $end
$var wire 2 6" Forward_B_o [1:0] $end
$var wire 5 7" MEM_Rd_i [4:0] $end
$var wire 1 ^ MEM_RegWrite_i $end
$var wire 1 D WB_RegWrite_i $end
$var wire 5 8" WB_Rd_i [4:0] $end
$var wire 5 9" EX_Rs2_i [4:0] $end
$var wire 5 :" EX_Rs1_i [4:0] $end
$var reg 2 ;" Forward_A_result [1:0] $end
$var reg 2 <" Forward_B_result [1:0] $end
$var reg 1 =" flag_A $end
$var reg 1 >" flag_B $end
$upscope $end
$scope module Hazard_Detection $end
$var wire 5 ?" RS1addr_i [4:0] $end
$var wire 5 @" RS2addr_i [4:0] $end
$var wire 5 A" RdAddr_i [4:0] $end
$var wire 1 U MemRead_i $end
$var reg 1 @ NoOp_o $end
$var reg 1 ? PCWrite_o $end
$var reg 1 7 Stall_o $end
$upscope $end
$scope module IDEX $end
$var wire 2 B" ALUOp_i [1:0] $end
$var wire 1 j ALUSrc_i $end
$var wire 1 h MemRead_i $end
$var wire 1 g MemWrite_i $end
$var wire 1 f MemtoReg_i $end
$var wire 5 C" RS1Addr_i [4:0] $end
$var wire 5 D" RS2Addr_i [4:0] $end
$var wire 5 E" RdAddr_i [4:0] $end
$var wire 1 e RegWrite_i $end
$var wire 1 ' clk_i $end
$var wire 10 F" funct_i [9:0] $end
$var wire 1 ) start_i $end
$var wire 1 l stall_i $end
$var wire 32 G" SignExtended_i [31:0] $end
$var wire 32 H" RS2Data_i [31:0] $end
$var wire 32 I" RS1Data_i [31:0] $end
$var reg 2 J" ALUOp_o [1:0] $end
$var reg 1 V ALUSrc_o $end
$var reg 1 U MemRead_o $end
$var reg 1 T MemWrite_o $end
$var reg 1 S MemtoReg_o $end
$var reg 5 K" RS1Addr_o [4:0] $end
$var reg 32 L" RS1Data_o [31:0] $end
$var reg 5 M" RS2Addr_o [4:0] $end
$var reg 32 N" RS2Data_o [31:0] $end
$var reg 5 O" RdAddr_o [4:0] $end
$var reg 1 M RegWrite_o $end
$var reg 32 P" SignExtended_o [31:0] $end
$var reg 10 Q" funct_o [9:0] $end
$upscope $end
$scope module IFID $end
$var wire 1 \ Flush_i $end
$var wire 1 7 Stall_i $end
$var wire 1 ' clk_i $end
$var wire 1 ) start_i $end
$var wire 1 l stall_i $end
$var wire 32 R" pc_i [31:0] $end
$var wire 32 S" instr_i [31:0] $end
$var reg 32 T" instr_o [31:0] $end
$var reg 32 U" pc_o [31:0] $end
$upscope $end
$scope module Instruction_Memory $end
$var wire 32 V" instr_o [31:0] $end
$var wire 32 W" addr_i [31:0] $end
$upscope $end
$scope module MEMWB $end
$var wire 32 X" MemAddr_i [31:0] $end
$var wire 1 ` MemtoReg_i $end
$var wire 5 Y" RdAddr_i [4:0] $end
$var wire 1 ^ RegWrite_i $end
$var wire 1 ' clk_i $end
$var wire 1 ) start_i $end
$var wire 1 l stall_i $end
$var wire 32 Z" MemRead_Data_i [31:0] $end
$var reg 32 [" MemAddr_o [31:0] $end
$var reg 32 \" MemRead_Data_o [31:0] $end
$var reg 1 F MemtoReg_o $end
$var reg 5 ]" RdAddr_o [4:0] $end
$var reg 1 D RegWrite_o $end
$upscope $end
$scope module MUX_ALUSrc $end
$var wire 32 ^" data1_i [31:0] $end
$var wire 32 _" data2_i [31:0] $end
$var wire 1 V select_i $end
$var wire 32 `" data_o [31:0] $end
$upscope $end
$scope module MUX_MemtoReg $end
$var wire 32 a" data1_i [31:0] $end
$var wire 32 b" data2_i [31:0] $end
$var wire 1 F select_i $end
$var wire 32 c" data_o [31:0] $end
$upscope $end
$scope module MUX_PC $end
$var wire 32 d" data1_i [31:0] $end
$var wire 32 e" data2_i [31:0] $end
$var wire 1 \ select_i $end
$var wire 32 f" data_o [31:0] $end
$upscope $end
$scope module PC $end
$var wire 1 ? PCWrite_i $end
$var wire 1 ' clk_i $end
$var wire 32 g" pc_i [31:0] $end
$var wire 1 ( rst_i $end
$var wire 1 ) start_i $end
$var wire 1 l stall_i $end
$var reg 32 h" pc_o [31:0] $end
$upscope $end
$scope module Registers $end
$var wire 5 i" RDaddr_i [4:0] $end
$var wire 32 j" RDdata_i [31:0] $end
$var wire 5 k" RS1addr_i [4:0] $end
$var wire 5 l" RS2addr_i [4:0] $end
$var wire 1 D RegWrite_i $end
$var wire 1 ' clk_i $end
$var wire 32 m" RS2data_o [31:0] $end
$var wire 32 n" RS1data_o [31:0] $end
$upscope $end
$scope module Shift_Left $end
$var wire 32 o" data_o [31:0] $end
$var wire 32 p" data_i [31:0] $end
$upscope $end
$scope module Sign_Extend $end
$var wire 32 q" data_i [31:0] $end
$var reg 32 r" data_o [31:0] $end
$upscope $end
$scope module dcache $end
$var wire 1 s" cache_dirty $end
$var wire 1 t" cache_sram_enable $end
$var wire 4 u" cache_sram_index [3:0] $end
$var wire 1 v" cache_sram_write $end
$var wire 1 ' clk_i $end
$var wire 1 c cpu_MemRead_i $end
$var wire 1 b cpu_MemWrite_i $end
$var wire 32 w" cpu_addr_i [31:0] $end
$var wire 32 x" cpu_data_i [31:0] $end
$var wire 32 y" cpu_data_o [31:0] $end
$var wire 1 z" cpu_req $end
$var wire 1 l cpu_stall_o $end
$var wire 256 {" mem_data_o [255:0] $end
$var wire 1 $ mem_enable_o $end
$var wire 1 # mem_write_o $end
$var wire 1 ( rst_i $end
$var wire 1 |" write_hit $end
$var wire 1 }" sram_valid $end
$var wire 22 ~" sram_tag [21:0] $end
$var wire 1 !# sram_dirty $end
$var wire 25 "# sram_cache_tag [24:0] $end
$var wire 256 ## sram_cache_data [255:0] $end
$var wire 256 $# r_hit_data [255:0] $end
$var wire 256 %# mem_data_i [255:0] $end
$var wire 32 &# mem_addr_o [31:0] $end
$var wire 1 " mem_ack_i $end
$var wire 1 '# hit $end
$var wire 23 (# cpu_tag [22:0] $end
$var wire 5 )# cpu_offset [4:0] $end
$var wire 4 *# cpu_index [3:0] $end
$var wire 25 +# cache_sram_tag [24:0] $end
$var wire 256 ,# cache_sram_data [255:0] $end
$var reg 1 -# cache_write $end
$var reg 32 .# cpu_data [31:0] $end
$var reg 1 /# mem_enable $end
$var reg 1 0# mem_write $end
$var reg 3 1# state [2:0] $end
$var reg 256 2# w_hit_data [255:0] $end
$var reg 1 3# write_back $end
$scope module dcache_sram $end
$var wire 4 4# addr_i [3:0] $end
$var wire 1 ' clk_i $end
$var wire 256 5# data_i [255:0] $end
$var wire 1 t" enable_i $end
$var wire 1 ( rst_i $end
$var wire 25 6# tag_i [24:0] $end
$var wire 1 v" write_i $end
$var reg 16 7# LRU [15:0] $end
$var reg 256 8# data_o [255:0] $end
$var reg 1 '# hit_o $end
$var reg 25 9# tag_o [24:0] $end
$var integer 32 :# i [31:0] $end
$var integer 32 ;# index [31:0] $end
$var integer 32 <# j [31:0] $end
$upscope $end
$upscope $end
$upscope $end
$scope module Data_Memory $end
$var wire 1 " ack_o $end
$var wire 32 =# addr_i [31:0] $end
$var wire 1 ' clk_i $end
$var wire 256 ># data_i [255:0] $end
$var wire 256 ?# data_o [255:0] $end
$var wire 1 $ enable_i $end
$var wire 1 ( rst_i $end
$var wire 1 # write_i $end
$var wire 27 @# addr [26:0] $end
$var reg 4 A# count [3:0] $end
$var reg 256 B# data [255:0] $end
$var reg 2 C# state [1:0] $end
$upscope $end
$upscope $end
$enddefinitions $end
#0
$dumpvars
b0 C#
bx B#
b0 A#
bx @#
bx ?#
bx >#
bx00000 =#
b10 <#
bx ;#
b10000 :#
bx 9#
bx 8#
b0 7#
b1xxxxxxxxxxxxxxxxxxxxxxxx 6#
bx 5#
bx 4#
03#
bx 2#
b0 1#
00#
0/#
bx .#
0-#
bx ,#
b1xxxxxxxxxxxxxxxxxxxxxxxx +#
bx *#
bx )#
bx (#
x'#
bx00000 &#
bx %#
bx $#
bx ##
bx "#
x!#
bx ~"
x}"
x|"
bx {"
xz"
bx y"
bx x"
bx w"
xv"
bx u"
xt"
xs"
bx r"
bx q"
bx p"
bx0 o"
bx n"
bx m"
bx l"
bx k"
bx j"
bx i"
b0 h"
bx g"
bx f"
bx e"
b100 d"
bx c"
bx b"
bx a"
bx `"
bx _"
bx ^"
bx ]"
bx \"
bx ["
bx Z"
bx Y"
bx X"
b0 W"
bx V"
bx U"
bx T"
bx S"
b0 R"
bx Q"
bx P"
bx O"
bx N"
bx M"
bx L"
bx K"
bx J"
bx I"
bx H"
bx G"
bx F"
bx E"
bx D"
bx C"
bx B"
bx A"
bx @"
bx ?"
x>"
x="
bx <"
bx ;"
bx :"
bx 9"
bx 8"
bx 7"
bx 6"
bx 5"
bx 4"
bx 3"
bx 2"
bx 1"
bx 0"
bx /"
bx ."
bx -"
bx ,"
bx +"
bx *"
bx )"
bx ("
bx '"
bx &"
bx %"
bx $"
bx #"
bx ""
bx !"
bx ~
bx }
b0 |
b100 {
b100 z
bx0 y
bx x
bx w
bx v
bx u
bx t
bx s
bx r
bx q
bx p
bx o
bx n
bx m
xl
bx k
xj
xi
xh
xg
xf
xe
bx d
xc
xb
bx a
x`
bx _
x^
x]
x\
bx [
bx Z
bx Y
bx X
bx W
xV
xU
xT
xS
bx R
bx Q
bx P
bx O
bx N
xM
bx L
bx K
bx J
bx I
bx H
bx G
xF
bx E
xD
bx C
bx B
bx A
x@
x?
bx >
b100 =
b0 <
bx ;
bx :
bx0 9
bx 8
x7
bx 6
bx00000 5
bx 4
bx 3
bx 2
bx 1
bx 0
bx /
b0 .
bx -
bx ,
x+
bx *
0)
1(
0'
bx00000 &
bx %
0$
0#
0"
bx !
$end
#12
b0 n
b0 s
b0 !"
b0 ;#
bx00000000000000000000000000000000 2#
0@
07
1?
b110 o
b110 r
b110 v
b0 @#
b100 A
b100 f"
b100 g"
b0 C
b0 p
b0 `"
1]
0\
0v"
0l
b0 X
b0 #"
b0 0"
b0 4"
b0 ^"
b0 Y
b0 q
b0 *"
b0 ."
b0 &
b0 5
b0 &#
b0 =#
b0 9
b0 y
b0 o"
b0 :
b0 '"
b0 H"
b0 m"
b0 ;
b0 ("
b0 I"
b0 n"
0i
0j
b11 k
b11 ~
b11 B"
0g
0h
0f
0e
b0 B
b0 +"
b0 1"
b0 c"
b0 j"
0s"
0|"
0t"
0z"
0>"
0="
b0 Z
b0 2"
b0 6"
b0 <"
b0 [
b0 ,"
b0 5"
b0 ;"
b1000000000000000000000000 +#
b1000000000000000000000000 6#
b0 (#
b0 u"
b0 4#
b0 *#
b0 )#
b0 8
b0 G"
b0 p"
b0 r"
b0 D"
b0 C"
b0 E"
b0 F"
b0 @"
b0 ?"
b0 l"
b0 k"
b0 }
b101 2
b11 1
0F
0D
b0 E
b0 8"
b0 ]"
b0 i"
b0 G
b0 \"
b0 b"
b0 H
b0 ["
b0 a"
0b
0c
0`
0^
b0 _
b0 &"
b0 7"
b0 Y"
b0 a
b0 %"
b0 x"
b0 d
b0 $"
b0 )"
b0 /"
b0 X"
b0 w"
0V
b0 W
b0 u
b0 J"
0T
0U
0S
0M
b0 R
b0 ""
b0 A"
b0 O"
b0 K
b0 t
b0 Q"
b0 L
b0 P"
b0 _"
b0 N
b0 3"
b0 N"
b0 P
b0 -"
b0 L"
b0 J
b0 T"
b0 q"
b10 0
b1000000000000111010010011 6
b1000000000000111010010011 S"
b1000000000000111010010011 V"
b1000000000 /
1)
0(
#25
b1010 o
b1010 r
b1010 v
b100000 9
b100000 y
b100000 o"
1j
b0 k
b0 ~
b0 B"
1e
b10000 8
b10000 G"
b10000 p"
b10000 r"
b10000 D"
b11101 E"
b10000 @"
b10000 l"
b10011 }
b11110111101000111100110011 6
b11110111101000111100110011 S"
b11110111101000111100110011 V"
b1000 A
b1000 f"
b1000 g"
b100000 >
b100000 w
b100000 e"
b0 I
b0 x
b0 U"
b1000000000000111010010011 J
b1000000000000111010010011 T"
b1000000000000111010010011 q"
b11 W
b11 u
b11 J"
b0 O
b0 9"
b0 M"
b0 Q
b0 :"
b0 K"
bx G
bx \"
bx b"
b1000 =
b1000 {
b1000 d"
b100 <
b100 |
b100 R"
b100 W"
b100 h"
b1 .
0+
1'
#50
0'
#75
b10000 n
b10000 s
b10000 !"
b110 o
b110 r
b110 v
b0 9
b0 y
b0 o"
0j
b10 k
b10 ~
b10 B"
b10000 C
b10000 p
b10000 `"
b0 8
b0 G"
b0 p"
b0 r"
b11101 D"
b11101 C"
b11110 E"
b1000 F"
b11101 @"
b11101 ?"
b11101 l"
b11101 k"
b110011 }
b11110111110000111010110011 6
b11110111110000111010110011 S"
b11110111110000111010110011 V"
b1100 A
b1100 f"
b1100 g"
1V
b0 W
b0 u
b0 J"
1M
b10000 O
b10000 9"
b10000 M"
b11101 R
b11101 ""
b11101 A"
b11101 O"
b10000 L
b10000 P"
b10000 _"
b100 >
b100 w
b100 e"
b100 I
b100 x
b100 U"
b11110111101000111100110011 J
b11110111101000111100110011 T"
b11110111101000111100110011 q"
b1100 =
b1100 {
b1100 d"
b1000 <
b1000 |
b1000 R"
b1000 W"
b1000 h"
b10 .
1'
#100
0'
#125
b100000000 n
b100000000 s
b100000000 !"
bx 2#
b101 o
b101 r
b101 v
b10000 X
b10000 #"
b10000 0"
b10000 4"
b10000 ^"
b10000 Y
b10000 q
b10000 *"
b10000 ."
b11110 C"
b11101 E"
b11110 ?"
b11110 k"
b10000 C
b10000 p
b10000 `"
1>"
b10 Z
b10 2"
b10 6"
b10 <"
1="
b10 [
b10 ,"
b10 5"
b10 ;"
b10000 )#
b1110111011000000000010000010011 6
b1110111011000000000010000010011 S"
b1110111011000000000010000010011 V"
b10000 A
b10000 f"
b10000 g"
b1000 >
b1000 w
b1000 e"
b1000 I
b1000 x
b1000 U"
b11110111110000111010110011 J
b11110111110000111010110011 T"
b11110111110000111010110011 q"
0V
b10 W
b10 u
b10 J"
b11101 O
b11101 9"
b11101 M"
b11101 Q
b11101 :"
b11101 K"
b11110 R
b11110 ""
b11110 A"
b11110 O"
b1000 K
b1000 t
b1000 Q"
b0 L
b0 P"
b0 _"
1^
b11101 _
b11101 &"
b11101 7"
b11101 Y"
b10000 d
b10000 $"
b10000 )"
b10000 /"
b10000 X"
b10000 w"
b10000 =
b10000 {
b10000 d"
b1100 <
b1100 |
b1100 R"
b1100 W"
b1100 h"
b11 .
1'
#150
0'
#175
b1000000000000 n
b1000000000000 s
b1000000000000 !"
b1000 ;#
bx00000000000000000000000000010000 2#
b1000 @#
b10000 C
b10000 p
b10000 `"
b100000000 &
b100000000 5
b100000000 &#
b100000000 =#
b111011101100 9
b111011101100 y
b111011101100 o"
1j
b0 k
b0 ~
b0 B"
b10000 B
b10000 +"
b10000 1"
b10000 c"
b10000 j"
b100000000 Y
b100000000 q
b100000000 *"
b100000000 ."
b10000 X
b10000 #"
b10000 0"
b10000 4"
b10000 ^"
b1000 u"
b1000 4#
b1000 *#
b0 )#
0>"
1="
b1 Z
b1 2"
b1 6"
b1 <"
b10 [
b10 ,"
b10 5"
b10 ;"
b11101110110 8
b11101110110 G"
b11101110110 p"
b11101110110 r"
b10110 D"
b0 C"
b1000 E"
b111011000 F"
b10110 @"
b0 ?"
b10110 l"
b0 k"
b10011 }
b11110101000000010000110011 6
b11110101000000010000110011 S"
b11110101000000010000110011 V"
b10100 A
b10100 f"
b10100 g"
1D
b11101 E
b11101 8"
b11101 ]"
b11101 i"
b10000 H
b10000 ["
b10000 a"
b11110 _
b11110 &"
b11110 7"
b11110 Y"
b10000 a
b10000 %"
b10000 x"
b100000000 d
b100000000 $"
b100000000 )"
b100000000 /"
b100000000 X"
b100000000 w"
b11110 Q
b11110 :"
b11110 K"
b11101 R
b11101 ""
b11101 A"
b11101 O"
b111011111000 >
b111011111000 w
b111011111000 e"
b1100 I
b1100 x
b1100 U"
b1110111011000000000010000010011 J
b1110111011000000000010000010011 T"
b1110111011000000000010000010011 q"
b10100 =
b10100 {
b10100 d"
b10000 <
b10000 |
b10000 R"
b10000 W"
b10000 h"
b100 .
1'
#200
0'
#225
b11101110110 n
b11101110110 s
b11101110110 !"
b0 ;#
b110 o
b110 r
b110 v
b10000000 @#
0]
b0 9
b0 y
b0 o"
b10000 :
b10000 '"
b10000 H"
b10000 m"
0j
b10 k
b10 ~
b10 B"
b1000000000000 &
b1000000000000 5
b1000000000000 &#
b1000000000000 =#
b0 8
b0 G"
b0 p"
b0 r"
b11101 D"
b1000 C"
b1000 F"
b11101 @"
b1000 ?"
b11101 l"
b1000 k"
b110011 }
b11101110110 C
b11101110110 p
b11101110110 `"
b0 Y
b0 q
b0 *"
b0 ."
b0 X
b0 #"
b0 0"
b0 4"
b0 ^"
b1000000000000000000001000 +#
b1000000000000000000001000 6#
b1000 (#
b0 u"
b0 4#
b0 *#
0="
b0 Z
b0 2"
b0 6"
b0 <"
b0 [
b0 ,"
b0 5"
b0 ;"
b100000000 B
b100000000 +"
b100000000 1"
b100000000 c"
b100000000 j"
b1100101010101000000010000010011 6
b1100101010101000000010000010011 S"
b1100101010101000000010000010011 V"
b11000 A
b11000 f"
b11000 g"
b10000 >
b10000 w
b10000 e"
b10000 I
b10000 x
b10000 U"
b11110101000000010000110011 J
b11110101000000010000110011 T"
b11110101000000010000110011 q"
1V
b0 W
b0 u
b0 J"
b10110 O
b10110 9"
b10110 M"
b0 Q
b0 :"
b0 K"
b1000 R
b1000 ""
b1000 A"
b1000 O"
b111011000 K
b111011000 t
b111011000 Q"
b11101110110 L
b11101110110 P"
b11101110110 _"
b11101 _
b11101 &"
b11101 7"
b11101 Y"
b1000000000000 d
b1000000000000 $"
b1000000000000 )"
b1000000000000 /"
b1000000000000 X"
b1000000000000 w"
b11110 E
b11110 8"
b11110 ]"
b11110 i"
b100000000 H
b100000000 ["
b100000000 a"
b11000 =
b11000 {
b11000 d"
b10100 <
b10100 |
b10100 R"
b10100 W"
b10100 h"
b101 .
1'
#250
0'
#275
b1011 ;#
b11101110110000000000000 n
b11101110110000000000000 s
b11101110110000000000000 !"
bx 2#
b101 o
b101 r
b101 v
b111011 @#
1]
b11101100000 &
b11101100000 5
b11101100000 &#
b11101100000 =#
b110010101010 9
b110010101010 y
b110010101010 o"
b0 :
b0 '"
b0 H"
b0 m"
1j
b0 k
b0 ~
b0 B"
b1000000000000 B
b1000000000000 +"
b1000000000000 1"
b1000000000000 c"
b1000000000000 j"
b11101110110 Y
b11101110110 q
b11101110110 *"
b11101110110 ."
b1000000000000000000000011 +#
b1000000000000000000000011 6#
b11 (#
b1011 u"
b1011 4#
b1011 *#
b10110 )#
b1 Z
b1 2"
b1 6"
b1 <"
1="
b10 [
b10 ,"
b10 5"
b10 ;"
b1000000000000 C
b1000000000000 p
b1000000000000 `"
b1000000000000 X
b1000000000000 #"
b1000000000000 0"
b1000000000000 4"
b1000000000000 ^"
b11001010101 8
b11001010101 G"
b11001010101 p"
b11001010101 r"
b10101 D"
b110010000 F"
b10101 @"
b10101 l"
b10011 }
b11111001000000010000110011 6
b11111001000000010000110011 S"
b11111001000000010000110011 V"
b11100 A
b11100 f"
b11100 g"
b11101 E
b11101 8"
b11101 ]"
b11101 i"
b1000000000000 H
b1000000000000 ["
b1000000000000 a"
b1000 _
b1000 &"
b1000 7"
b1000 Y"
b0 a
b0 %"
b0 x"
b11101110110 d
b11101110110 $"
b11101110110 )"
b11101110110 /"
b11101110110 X"
b11101110110 w"
0V
b10 W
b10 u
b10 J"
b11101 O
b11101 9"
b11101 M"
b1000 Q
b1000 :"
b1000 K"
b1000 K
b1000 t
b1000 Q"
b0 L
b0 P"
b0 _"
b10000 N
b10000 3"
b10000 N"
b110010111110 >
b110010111110 w
b110010111110 e"
b10100 I
b10100 x
b10100 U"
b1100101010101000000010000010011 J
b1100101010101000000010000010011 T"
b1100101010101000000010000010011 q"
b11100 =
b11100 {
b11100 d"
b11000 <
b11000 |
b11000 R"
b11000 W"
b11000 h"
b110 .
1'
#300
0'
#325
b11101110110011001010101 n
b11101110110011001010101 s
b11101110110011001010101 !"
b0 ;#
b110 o
b110 r
b110 v
bx00000000000000000001000000000000 2#
b111011101100000000 @#
0]
b11101110110 ;
b11101110110 ("
b11101110110 I"
b11101110110 n"
b0 9
b0 y
b0 o"
b100000000 :
b100000000 '"
b100000000 H"
b100000000 m"
0j
b10 k
b10 ~
b10 B"
b11101110110000000000000 &
b11101110110000000000000 5
b11101110110000000000000 &#
b11101110110000000000000 =#
b0 8
b0 G"
b0 p"
b0 r"
b11110 D"
b1000 F"
b11110 @"
b11110 l"
b110011 }
b11001010101 C
b11001010101 p
b11001010101 `"
b11101110110000000000000 Y
b11101110110000000000000 q
b11101110110000000000000 *"
b11101110110000000000000 ."
b0 X
b0 #"
b0 0"
b0 4"
b0 ^"
b1000000000011101110110000 +#
b1000000000011101110110000 6#
b11101110110000 (#
b0 u"
b0 4#
b0 *#
b0 )#
1="
b0 Z
b0 2"
b0 6"
b0 <"
b10 [
b10 ,"
b10 5"
b10 ;"
b11101110110 B
b11101110110 +"
b11101110110 1"
b11101110110 c"
b11101110110 j"
b100010001000000010000010011 6
b100010001000000010000010011 S"
b100010001000000010000010011 V"
b100000 A
b100000 f"
b100000 g"
b11000 >
b11000 w
b11000 e"
b11000 I
b11000 x
b11000 U"
b11111001000000010000110011 J
b11111001000000010000110011 T"
b11111001000000010000110011 q"
1V
b0 W
b0 u
b0 J"
b10101 O
b10101 9"
b10101 M"
b110010000 K
b110010000 t
b110010000 Q"
b11001010101 L
b11001010101 P"
b11001010101 _"
b0 N
b0 3"
b0 N"
b1000000000000 a
b1000000000000 %"
b1000000000000 x"
b11101110110000000000000 d
b11101110110000000000000 $"
b11101110110000000000000 )"
b11101110110000000000000 /"
b11101110110000000000000 X"
b11101110110000000000000 w"
b1000 E
b1000 8"
b1000 ]"
b1000 i"
b11101110110 H
b11101110110 ["
b11101110110 a"
b100000 =
b100000 {
b100000 d"
b11100 <
b11100 |
b11100 R"
b11100 W"
b11100 h"
b111 .
1'
#350
0'
